simulation/qsim/Pratica06_cont_gen_1bit.msim.vcd
$comment
	File created using the following command:
		vcd file Pratica06_cont_gen_1bit.msim.vcd -direction
$end
$date
	Mon Nov 27 20:41:33 2023
$end
$version
	ModelSim Version 10.1d
$end
$timescale
	1ps
$end
$scope module Pratica06_cont_gen_1bit_vlg_vec_tst $end
$var reg 1 ! c0 $end
$var reg 1 " c1 $end
$var reg 1 # ck $end
$var reg 1 $ d $end
$var reg 1 % eand $end
$var reg 1 & eor $end
$var reg 1 ' qant $end
$var reg 1 ( r $end
$var wire 1 ) q $end
$var wire 1 * sand $end
$var wire 1 + sor $end
$var wire 1 , sampler $end
$scope module i1 $end
$var wire 1 - gnd $end
$var wire 1 . vcc $end
$var wire 1 / unknown $end
$var tri1 1 0 devclrn $end
$var tri1 1 1 devpor $end
$var tri1 1 2 devoe $end
$var wire 1 3 q~output_o $end
$var wire 1 4 sand~output_o $end
$var wire 1 5 sor~output_o $end
$var wire 1 6 ck~input_o $end
$var wire 1 7 c1~input_o $end
$var wire 1 8 c0~input_o $end
$var wire 1 9 qant~input_o $end
$var wire 1 : eor~input_o $end
$var wire 1 ; inst1|inst8~0_combout $end
$var wire 1 < d~input_o $end
$var wire 1 = inst1|inst12~0_combout $end
$var wire 1 > eand~input_o $end
$var wire 1 ? inst1|inst7~0_combout $end
$var wire 1 @ inst1|inst12~combout $end
$var wire 1 A r~input_o $end
$var wire 1 B inst6~q $end
$var wire 1 C inst~combout $end
$var wire 1 D inst2~combout $end
$upscope $end
$upscope $end
$enddefinitions $end
#0
$dumpvars
0!
0"
0#
0$
0%
0&
0'
0(
0)
0*
0+
x,
0-
1.
x/
10
11
12
03
04
05
06
07
08
09
0:
1;
0<
0=
0>
0?
0@
0A
0B
0C
0D
$end
#20000
1!
1$
18
1<
0,
0;
#30000
1#
1'
16
19
1,
1D
15
1+
#40000
1"
0!
0$
17
08
0<
0,
#60000
0#
0'
1!
1$
06
09
18
1<
1,
1=
0D
1@
05
0+
#70000
1%
1>
0,
#80000
0"
0!
0$
07
08
0<
1,
0=
1;
0@
#90000
1#
1'
16
19
0,
0;
1D
1C
15
14
1+
1*
#100000
1!
1$
18
1<
1,
1?
1@
#120000
1&
1"
0#
0'
0!
0$
1:
17
06
09
08
0<
0,
0@
0?
0C
04
0*
#130000
0%
0>
1,
#140000
1!
1$
18
1<
0,
1=
1@
#150000
1#
1'
16
19
1,
1B
1?
13
1)
#160000
0"
0!
0$
07
08
0<
0,
0?
1;
#180000
0#
0'
1!
1$
06
09
18
1<
1,
1?
0;
0=
#190000
1%
1>
0,
#200000
1"
0!
0$
17
08
0<
1,
0@
0?
1;
1@
#210000
1#
1'
16
19
0,
1C
14
1*
#220000
1!
1$
18
1<
1,
1=
0;
#240000
0&
0"
0#
0'
0!
0$
0:
07
06
09
08
0<
0,
0D
0C
05
04
0+
0*
#250000
0%
0>
1,
#260000
1!
1$
18
1<
0,
1?
0=
#270000
1#
1'
16
19
1,
1D
15
1+
#280000
1"
0!
0$
17
08
0<
0,
0@
0?
1;
1@
#300000
0#
0'
1!
1$
06
09
18
1<
1,
1?
0;
1=
0D
05
0+
#310000
1%
1>
0,
#320000
0"
0!
0$
07
08
0<
1,
0?
#330000
1#
1'
16
19
0,
1;
1D
1C
15
14
1+
1*
#340000
1!
1$
18
1<
1,
0=
0;
0@
#360000
1&
1"
0#
0'
0!
0$
1:
17
06
09
08
0<
0,
1;
0C
1@
04
0*
#370000
0%
0>
1,
#380000
1!
1$
18
1<
0,
1?
1=
0;
#390000
1#
1'
16
19
1,
#400000
0"
0!
0$
07
08
0<
0,
0?
1;
#420000
0#
0'
1!
1$
06
09
18
1<
1,
1?
0;
0=
#430000
1%
1>
0,
#440000
1"
0!
0$
17
08
0<
1,
0@
0?
1;
1@
#450000
1#
1'
16
19
0,
1C
14
1*
#460000
1!
1$
18
1<
1,
1=
0;
#480000
0&
0"
0#
0'
0!
0$
0:
07
06
09
08
0<
0,
0D
0C
05
04
0+
0*
#490000
0%
0>
1,
#500000
1!
1$
18
1<
0,
1?
0=
#510000
1#
1'
16
19
1,
1D
15
1+
#520000
1"
0!
0$
17
08
0<
0,
0@
0?
1;
1@
#530000
1(
1A
1,
0B
0;
03
0)
0@
#540000
0#
0'
1!
1$
06
09
18
1<
0,
1=
0D
1@
05
0+
#550000
1%
1>
1,
#560000
0"
0!
0$
07
08
0<
0,
0=
1;
0@
#570000
1#
1'
16
19
1,
0;
1D
1C
15
14
1+
1*
#580000
1!
1$
18
1<
0,
1?
1@
#600000
1&
1"
0#
0'
0!
0$
1:
17
06
09
08
0<
1,
0@
0?
0C
04
0*
#610000
0%
0>
0,
#620000
1!
1$
18
1<
1,
1=
1@
#630000
1#
1'
16
19
0,
#640000
0"
0!
0$
07
08
0<
1,
0=
0@
#660000
0#
0'
1!
1$
06
09
18
1<
0,
#670000
1%
1>
1,
#680000
1"
0!
0$
17
08
0<
0,
#690000
1#
1'
16
19
1,
1C
14
1*
#700000
1!
1$
18
1<
0,
1?
1=
1@
#720000
0&
0"
0#
0'
0!
0$
0:
07
06
09
08
0<
1,
1;
0=
0?
0D
0C
0@
05
04
0+
0*
#730000
0%
0>
0,
#740000
1!
1$
18
1<
1,
0;
#750000
1#
1'
16
19
0,
1D
15
1+
#760000
1"
0!
0$
17
08
0<
1,
#780000
0#
0'
1!
1$
06
09
18
1<
0,
1=
0D
1@
05
0+
#790000
1%
1>
1,
#800000
0"
0!
0$
07
08
0<
0,
0=
1;
0@
#810000
1#
1'
16
19
1,
0;
1D
1C
15
14
1+
1*
#820000
1!
1$
18
1<
0,
1?
1@
#840000
1&
1"
0#
0'
0!
0$
1:
17
06
09
08
0<
1,
0@
0?
0C
04
0*
#850000
0%
0>
0,
#860000
1!
1$
18
1<
1,
1=
1@
#870000
1#
1'
16
19
0,
#880000
0"
0!
0$
07
08
0<
1,
0=
0@
#900000
0#
0'
1!
1$
06
09
18
1<
0,
#910000
1%
1>
1,
#920000
1"
0!
0$
17
08
0<
0,
#930000
1#
1'
16
19
1,
1C
14
1*
#940000
1!
1$
18
1<
0,
1?
1=
1@
#960000
0&
0"
0#
0'
0!
0$
0:
07
06
09
08
0<
1,
1;
0=
0?
0D
0C
0@
05
04
0+
0*
#970000
0%
0>
0,
#980000
1!
1$
18
1<
1,
0;
#990000
1#
1'
16
19
0,
1D
15
1+
