simulation/qsim/Pratica04_Bloco_Aritmetico.msim.vcd
$comment
	File created using the following command:
		vcd file Pratica04_Bloco_Aritmetico.msim.vcd -direction
$end
$date
	Sun Nov 05 13:41:19 2023
$end
$version
	ModelSim Version 10.1d
$end
$timescale
	1ps
$end
$scope module Pratica04_Bloco_Aritmetico_vlg_vec_tst $end
$var reg 4 ! a [3:0] $end
$var reg 4 " b [3:0] $end
$var reg 1 # c0 $end
$var reg 1 $ c1 $end
$var wire 1 % cout $end
$var wire 1 & s [3] $end
$var wire 1 ' s [2] $end
$var wire 1 ( s [1] $end
$var wire 1 ) s [0] $end
$var wire 1 * sampler $end
$scope module i1 $end
$var wire 1 + gnd $end
$var wire 1 , vcc $end
$var wire 1 - unknown $end
$var tri1 1 . devclrn $end
$var tri1 1 / devpor $end
$var tri1 1 0 devoe $end
$var wire 1 1 cout~output_o $end
$var wire 1 2 s[3]~output_o $end
$var wire 1 3 s[2]~output_o $end
$var wire 1 4 s[1]~output_o $end
$var wire 1 5 s[0]~output_o $end
$var wire 1 6 c0~input_o $end
$var wire 1 7 a[3]~input_o $end
$var wire 1 8 c1~input_o $end
$var wire 1 9 inst|inst5~combout $end
$var wire 1 : b[3]~input_o $end
$var wire 1 ; a[2]~input_o $end
$var wire 1 < b[2]~input_o $end
$var wire 1 = inst1|inst2~combout $end
$var wire 1 > b[1]~input_o $end
$var wire 1 ? inst1|inst1~combout $end
$var wire 1 @ a[1]~input_o $end
$var wire 1 A a[0]~input_o $end
$var wire 1 B b[0]~input_o $end
$var wire 1 C inst2|inst|inst7|1~0_combout $end
$var wire 1 D inst2|inst2|inst7|1~0_combout $end
$var wire 1 E inst2|inst3|inst7|1~0_combout $end
$var wire 1 F inst2|inst4|inst7|1~0_combout $end
$var wire 1 G inst2|inst4|inst6~combout $end
$var wire 1 H inst2|inst3|inst6~combout $end
$var wire 1 I inst2|inst2|inst6~combout $end
$var wire 1 J inst2|inst|inst6~combout $end
$upscope $end
$upscope $end
$enddefinitions $end
#0
$dumpvars
b0 !
b0 "
0#
0$
0%
0)
0(
0'
0&
x*
0+
1,
x-
1.
1/
10
01
02
03
04
05
06
07
08
09
0:
0;
0<
0=
0>
0?
0@
0A
0B
0C
0D
0E
0F
0G
0H
0I
0J
$end
#10000
b1000 !
b1000 "
1:
17
0*
1G
12
1&
#20000
b1100 !
b1100 "
b100 !
b100 "
1<
0:
1;
07
1*
1=
0G
02
0&
1H
13
1'
#30000
b1100 !
b1100 "
1:
17
0*
1G
12
1&
#40000
b1110 !
b1110 "
b1010 !
b1010 "
b10 !
b10 "
1>
0<
0:
1@
0;
07
1*
1?
0=
0G
02
0&
1I
0H
14
03
1(
0'
#50000
b1010 !
b1010 "
1:
17
0*
1G
12
1&
#60000
b1110 !
b1110 "
b110 !
b110 "
1<
0:
1;
07
1*
1=
0G
02
0&
1H
13
1'
#70000
b1110 !
b1110 "
1:
17
0*
1G
12
1&
#80000
b1111 !
b1111 "
1#
b1101 !
b1101 "
b1001 !
b1001 "
b1 !
b1 "
1B
0>
0<
0:
1A
0@
0;
07
16
1*
1J
15
1)
#90000
b1001 !
b1001 "
1:
17
0*
0G
02
0&
#100000
b1101 !
b1101 "
b101 !
b101 "
1<
0:
1;
07
1*
0=
1G
12
1&
0H
03
0'
#110000
b1101 !
b1101 "
1:
17
0*
0G
02
0&
#120000
b1111 !
b1111 "
b1011 !
b1011 "
b11 !
b11 "
1>
0<
0:
1@
0;
07
1*
0?
1=
1G
12
1&
0I
1H
04
13
0(
1'
#130000
b1011 !
b1011 "
1:
17
0*
0G
02
0&
#140000
b1111 !
b1111 "
b111 !
b111 "
1<
0:
1;
07
1*
0=
1G
12
1&
0H
03
0'
#150000
b1111 !
b1111 "
1:
17
0*
0G
02
0&
#160000
1$
b1110 !
b1110 "
0#
b1100 !
b1100 "
b1000 !
b1000 "
b0 !
b0 "
18
0B
0>
0<
0:
0A
0@
0;
07
06
1*
0J
05
0)
#170000
b1000 !
b1000 "
1:
17
0*
19
1G
12
1&
0G
1F
02
11
0&
1%
#180000
b1100 !
b1100 "
b100 !
b100 "
1<
0:
1;
07
1*
1=
09
1G
0F
1H
1E
12
01
13
1&
0%
1'
0H
0G
03
02
0'
0&
1G
12
1&
#190000
b1100 !
b1100 "
1:
17
0*
19
0G
1F
02
11
0&
1%
1G
12
1&
#200000
b1110 !
b1110 "
b1010 !
b1010 "
b10 !
b10 "
1>
0<
0:
1@
0;
07
1*
1?
0=
0E
09
0G
1I
1H
1D
02
14
13
0&
1(
1'
0I
0H
0F
04
03
01
0(
0'
0%
1H
13
1'
#210000
b1010 !
b1010 "
1:
17
0*
19
1G
12
1&
0G
1F
02
11
0&
1%
#220000
b1110 !
b1110 "
b110 !
b110 "
1<
0:
1;
07
1*
1=
1E
09
1G
0F
0H
12
01
03
1&
0%
0'
1H
13
1'
#230000
b1110 !
b1110 "
1:
17
0*
19
0G
1F
02
11
0&
1%
1G
12
1&
#240000
b1111 !
b1111 "
1#
b1101 !
b1101 "
b1001 !
b1001 "
b1 !
b1 "
1B
0>
0<
0:
1A
0@
0;
07
16
1*
1C
0D
09
1I
0H
1D
0E
14
03
1(
0'
0I
1H
0G
1E
04
13
02
0(
1'
0&
0H
1G
0F
03
12
01
0'
1&
0%
0G
1F
02
11
0&
1%
#250000
b1001 !
b1001 "
1:
17
0*
19
1G
0F
12
01
1&
0%
0G
1F
02
11
0&
1%
#260000
b1101 !
b1101 "
b101 !
b101 "
1<
0:
1;
07
1*
0=
09
1G
1H
12
13
1&
1'
0H
0G
03
02
0'
0&
#270000
b1101 !
b1101 "
1:
17
0*
19
1G
0F
12
01
1&
0%
0G
1F
02
11
0&
1%
#280000
b1111 !
b1111 "
b1011 !
b1011 "
b11 !
b11 "
1>
0<
0:
1@
0;
07
1*
0?
1=
0E
09
1G
1I
1H
1E
12
14
13
1&
1(
1'
0I
0H
0F
04
03
01
0(
0'
0%
0G
1F
02
11
0&
1%
#290000
b1011 !
b1011 "
1:
17
0*
19
1G
0F
12
01
1&
0%
0G
1F
02
11
0&
1%
#300000
b1111 !
b1111 "
b111 !
b111 "
1<
0:
1;
07
1*
0=
09
1G
1H
12
13
1&
1'
0H
0G
03
02
0'
0&
#310000
b1111 !
b1111 "
1:
17
0*
19
1G
0F
12
01
1&
0%
0G
1F
02
11
0&
1%
#320000
0$
b1110 !
b1110 "
0#
b1100 !
b1100 "
b1000 !
b1000 "
b0 !
b0 "
08
0B
0>
0<
0:
0A
0@
0;
07
06
1*
0E
0D
0C
09
1I
1H
14
13
1(
1'
0F
0H
0I
01
03
04
0%
0'
0(
