simulation/qsim/Pratica04_Adder_4bits.msim.vcd
$comment
	File created using the following command:
		vcd file Pratica04_Adder_4bits.msim.vcd -direction
$end
$date
	Sun Nov 05 13:28:29 2023
$end
$version
	ModelSim Version 10.1d
$end
$timescale
	1ps
$end
$scope module Pratica04_Adder_4bits_vlg_vec_tst $end
$var reg 4 ! a [3:0] $end
$var reg 4 " b [3:0] $end
$var reg 1 # cin $end
$var wire 1 $ cout $end
$var wire 1 % s [3] $end
$var wire 1 & s [2] $end
$var wire 1 ' s [1] $end
$var wire 1 ( s [0] $end
$var wire 1 ) sampler $end
$scope module i1 $end
$var wire 1 * gnd $end
$var wire 1 + vcc $end
$var wire 1 , unknown $end
$var tri1 1 - devclrn $end
$var tri1 1 . devpor $end
$var tri1 1 / devoe $end
$var wire 1 0 cout~output_o $end
$var wire 1 1 s[3]~output_o $end
$var wire 1 2 s[2]~output_o $end
$var wire 1 3 s[1]~output_o $end
$var wire 1 4 s[0]~output_o $end
$var wire 1 5 a[3]~input_o $end
$var wire 1 6 b[3]~input_o $end
$var wire 1 7 b[1]~input_o $end
$var wire 1 8 a[1]~input_o $end
$var wire 1 9 cin~input_o $end
$var wire 1 : a[0]~input_o $end
$var wire 1 ; b[0]~input_o $end
$var wire 1 < inst|inst7|1~0_combout $end
$var wire 1 = inst2|inst7|1~0_combout $end
$var wire 1 > b[2]~input_o $end
$var wire 1 ? a[2]~input_o $end
$var wire 1 @ inst3|inst7|1~0_combout $end
$var wire 1 A inst4|inst7|1~0_combout $end
$var wire 1 B inst4|inst6~combout $end
$var wire 1 C inst3|inst6~combout $end
$var wire 1 D inst2|inst6~combout $end
$var wire 1 E inst|inst6~0_combout $end
$upscope $end
$upscope $end
$enddefinitions $end
#0
$dumpvars
b0 !
b0 "
0#
0$
0(
0'
0&
0%
x)
0*
1+
x,
1-
1.
1/
00
01
02
03
04
05
06
07
08
09
0:
0;
0<
0=
0>
0?
0@
0A
0B
0C
0D
0E
$end
#10000
b1000 !
b1000 "
16
15
0)
1A
10
1$
#20000
b1100 !
b1100 "
b100 !
b100 "
1>
06
1?
05
1)
1@
0A
00
0$
1B
11
1%
#30000
b1100 !
b1100 "
16
15
0)
1A
10
1$
#40000
b1110 !
b1110 "
b1010 !
b1010 "
b10 !
b10 "
17
0>
06
18
0?
05
1)
1=
0@
0A
00
0$
1C
0B
12
01
1&
0%
#50000
b1010 !
b1010 "
16
15
0)
1A
10
1$
#60000
b1110 !
b1110 "
b110 !
b110 "
1>
06
1?
05
1)
1@
0A
00
0$
1B
11
1%
#70000
b1110 !
b1110 "
16
15
0)
1A
10
1$
#80000
b1111 !
b1111 "
b1101 !
b1101 "
b1001 !
b1001 "
b1 !
b1 "
1;
07
0>
06
1:
08
0?
05
1)
1<
0=
0@
0A
00
0$
1D
0C
0B
13
02
01
1'
0&
0%
#90000
b1001 !
b1001 "
16
15
0)
1A
10
1$
#100000
b1101 !
b1101 "
b101 !
b101 "
1>
06
1?
05
1)
1@
0A
00
0$
1B
11
1%
#110000
b1101 !
b1101 "
16
15
0)
1A
10
1$
#120000
b1111 !
b1111 "
b1011 !
b1011 "
b11 !
b11 "
17
0>
06
18
0?
05
1)
1=
0@
0A
00
0$
1C
0B
12
01
1&
0%
#130000
b1011 !
b1011 "
16
15
0)
1A
10
1$
#140000
b1111 !
b1111 "
b111 !
b111 "
1>
06
1?
05
1)
1@
0A
00
0$
1B
11
1%
#150000
b1111 !
b1111 "
16
15
0)
1A
10
1$
#160000
1#
b1110 !
b1110 "
b1100 !
b1100 "
b1000 !
b1000 "
b0 !
b0 "
19
0;
07
0>
06
0:
08
0?
05
1)
0<
0=
0@
1E
0A
14
00
1(
0$
0D
0C
0B
03
02
01
0'
0&
0%
#170000
b1000 !
b1000 "
16
15
0)
1A
10
1$
#180000
b1100 !
b1100 "
b100 !
b100 "
1>
06
1?
05
1)
1@
0A
00
0$
1B
11
1%
#190000
b1100 !
b1100 "
16
15
0)
1A
10
1$
#200000
b1110 !
b1110 "
b1010 !
b1010 "
b10 !
b10 "
17
0>
06
18
0?
05
1)
1=
0@
0A
00
0$
1C
0B
12
01
1&
0%
#210000
b1010 !
b1010 "
16
15
0)
1A
10
1$
#220000
b1110 !
b1110 "
b110 !
b110 "
1>
06
1?
05
1)
1@
0A
00
0$
1B
11
1%
#230000
b1110 !
b1110 "
16
15
0)
1A
10
1$
#240000
b1111 !
b1111 "
b1101 !
b1101 "
b1001 !
b1001 "
b1 !
b1 "
1;
07
0>
06
1:
08
0?
05
1)
1<
0=
0@
0A
00
0$
1D
0C
0B
13
02
01
1'
0&
0%
#250000
b1001 !
b1001 "
16
15
0)
1A
10
1$
#260000
b1101 !
b1101 "
b101 !
b101 "
1>
06
1?
05
1)
1@
0A
00
0$
1B
11
1%
#270000
b1101 !
b1101 "
16
15
0)
1A
10
1$
#280000
b1111 !
b1111 "
b1011 !
b1011 "
b11 !
b11 "
17
0>
06
18
0?
05
1)
1=
0@
0A
00
0$
1C
0B
12
01
1&
0%
#290000
b1011 !
b1011 "
16
15
0)
1A
10
1$
#300000
b1111 !
b1111 "
b111 !
b111 "
1>
06
1?
05
1)
1@
0A
00
0$
1B
11
1%
#310000
b1111 !
b1111 "
16
15
0)
1A
10
1$
#320000
0#
b1110 !
b1110 "
b1100 !
b1100 "
b1000 !
b1000 "
b0 !
b0 "
09
0;
07
0>
06
0:
08
0?
05
1)
0<
0=
0@
0E
0A
04
00
0(
0$
0D
0C
0B
03
02
01
0'
0&
0%
