simulation/qsim/Pratica05_div_freq_5_bits.msim.vcd
$comment
	File created using the following command:
		vcd file Pratica05_div_freq_5_bits.msim.vcd -direction
$end
$date
	Fri Jan 26 11:02:01 2024
$end
$version
	ModelSim Version 10.1d
$end
$timescale
	1ps
$end
$scope module Pratica05_div_freq_5_bits_vlg_vec_tst $end
$var reg 1 ! ck $end
$var reg 1 " rst $end
$var wire 1 # q [4] $end
$var wire 1 $ q [3] $end
$var wire 1 % q [2] $end
$var wire 1 & q [1] $end
$var wire 1 ' q [0] $end
$var wire 1 ( sampler $end
$scope module i1 $end
$var wire 1 ) gnd $end
$var wire 1 * vcc $end
$var wire 1 + unknown $end
$var tri1 1 , devclrn $end
$var tri1 1 - devpor $end
$var tri1 1 . devoe $end
$var wire 1 / q[4]~output_o $end
$var wire 1 0 q[3]~output_o $end
$var wire 1 1 q[2]~output_o $end
$var wire 1 2 q[1]~output_o $end
$var wire 1 3 q[0]~output_o $end
$var wire 1 4 ck~input_o $end
$var wire 1 5 inst|inst2~0_combout $end
$var wire 1 6 rst~input_o $end
$var wire 1 7 rst~inputclkctrl_outclk $end
$var wire 1 8 inst|inst2~q $end
$var wire 1 9 inst1|inst2~0_combout $end
$var wire 1 : inst1|inst2~feeder_combout $end
$var wire 1 ; inst1|inst2~q $end
$var wire 1 < inst2|inst2~0_combout $end
$var wire 1 = inst2|inst2~feeder_combout $end
$var wire 1 > inst2|inst2~q $end
$var wire 1 ? inst3|inst2~0_combout $end
$var wire 1 @ inst3|inst2~feeder_combout $end
$var wire 1 A inst3|inst2~q $end
$var wire 1 B inst4|inst2~0_combout $end
$var wire 1 C inst4|inst2~q $end
$upscope $end
$upscope $end
$enddefinitions $end
#0
$dumpvars
0!
1"
0'
0&
0%
0$
0#
x(
0)
1*
x+
1,
1-
1.
0/
00
01
02
03
04
15
16
17
08
19
1:
0;
1<
1=
0>
1?
1@
0A
1B
0C
$end
#20000
1!
14
0(
#40000
0"
0!
06
04
07
1(
#60000
1!
14
0(
18
05
13
1'
1;
09
12
1&
0:
1>
0<
11
1%
0=
1A
0?
10
1$
0@
1C
0B
1/
1#
#80000
0!
04
1(
#100000
1!
14
0(
08
15
03
0'
#120000
0!
04
1(
#140000
1!
14
0(
18
05
13
1'
0;
19
02
0&
1:
#160000
0!
04
1(
#180000
1!
14
0(
08
15
03
0'
#200000
0!
04
1(
#220000
1!
14
0(
18
05
13
1'
1;
09
12
1&
0:
0>
1<
01
0%
1=
#240000
0!
04
1(
#260000
1!
14
0(
08
15
03
0'
#280000
0!
04
1(
#300000
1!
14
0(
18
05
13
1'
0;
19
02
0&
1:
#320000
0!
04
1(
#340000
1!
14
0(
08
15
03
0'
#360000
0!
04
1(
#380000
1!
14
0(
18
05
13
1'
1;
09
12
1&
0:
1>
0<
11
1%
0=
0A
1?
00
0$
1@
#400000
0!
04
1(
#420000
1!
14
0(
08
15
03
0'
#440000
0!
04
1(
#460000
1!
14
0(
18
05
13
1'
0;
19
02
0&
1:
#480000
0!
04
1(
#500000
1!
14
0(
08
15
03
0'
#520000
0!
04
1(
#540000
1!
14
0(
18
05
13
1'
1;
09
12
1&
0:
0>
1<
01
0%
1=
#560000
0!
04
1(
#580000
1!
14
0(
08
15
03
0'
#600000
0!
04
1(
#620000
1!
14
0(
18
05
13
1'
0;
19
02
0&
1:
#640000
0!
04
1(
#660000
1!
14
0(
08
15
03
0'
#680000
0!
04
1(
#700000
1!
14
0(
18
05
13
1'
1;
09
12
1&
0:
1>
0<
11
1%
0=
1A
0?
10
1$
0@
0C
1B
0/
0#
#720000
0!
04
1(
#740000
1!
14
0(
08
15
03
0'
#760000
0!
04
1(
#780000
1!
14
0(
18
05
13
1'
0;
19
02
0&
1:
#800000
0!
04
1(
#820000
1!
14
0(
08
15
03
0'
#840000
0!
04
1(
#860000
1!
14
0(
18
05
13
1'
1;
09
12
1&
0:
0>
1<
01
0%
1=
#880000
0!
04
1(
#900000
1!
14
0(
08
15
03
0'
#920000
0!
04
1(
#940000
1!
14
0(
18
05
13
1'
0;
19
02
0&
1:
#960000
0!
04
1(
#980000
1!
14
0(
08
15
03
0'
