simulation/qsim/Pratica05_reg_1_bit.msim.vcd
$comment
	File created using the following command:
		vcd file Pratica05_reg_1_bit.msim.vcd -direction
$end
$date
	Wed Nov 08 14:09:34 2023
$end
$version
	ModelSim Version 10.1d
$end
$timescale
	1ps
$end
$scope module Pratica05_reg_1_bit_vlg_vec_tst $end
$var reg 1 ! ck $end
$var reg 1 " d $end
$var reg 1 # en $end
$var reg 1 $ rst $end
$var wire 1 % q $end
$var wire 1 & sampler $end
$scope module i1 $end
$var wire 1 ' gnd $end
$var wire 1 ( vcc $end
$var wire 1 ) unknown $end
$var tri1 1 * devclrn $end
$var tri1 1 + devpor $end
$var tri1 1 , devoe $end
$var wire 1 - q~output_o $end
$var wire 1 . ck~input_o $end
$var wire 1 / en~input_o $end
$var wire 1 0 d~input_o $end
$var wire 1 1 inst2|inst~0_combout $end
$var wire 1 2 rst~input_o $end
$var wire 1 3 inst2|inst~q $end
$upscope $end
$upscope $end
$enddefinitions $end
#0
$dumpvars
0!
0"
0#
0$
0%
x&
0'
1(
x)
1*
1+
1,
0-
0.
0/
00
01
02
03
$end
#20000
1!
1.
0&
#40000
1"
0!
10
0.
1&
#60000
1!
1.
0&
#80000
1#
0"
0!
1/
00
0.
1&
#100000
1!
1.
0&
#120000
1"
0!
10
0.
1&
11
#140000
1!
1.
0&
13
1-
1%
#160000
1$
0#
0"
0!
12
0/
00
0.
1&
03
01
0-
0%
#180000
1!
1.
0&
#200000
1"
0!
10
0.
1&
#220000
1!
1.
0&
#240000
1#
0"
0!
1/
00
0.
1&
#260000
1!
1.
0&
#280000
1"
0!
10
0.
1&
11
#300000
1!
1.
0&
#320000
0$
0#
0"
0!
02
0/
00
0.
1&
01
#340000
1!
1.
0&
#360000
1"
0!
10
0.
1&
#380000
1!
1.
0&
#400000
1#
0"
0!
1/
00
0.
1&
#420000
1!
1.
0&
#440000
1"
0!
10
0.
1&
11
#460000
1!
1.
0&
13
1-
1%
#480000
1$
0#
0"
0!
12
0/
00
0.
1&
03
01
0-
0%
#500000
1!
1.
0&
#520000
1"
0!
10
0.
1&
#540000
1!
1.
0&
#560000
1#
0"
0!
1/
00
0.
1&
#580000
1!
1.
0&
#600000
1"
0!
10
0.
1&
11
#620000
1!
1.
0&
#640000
0$
0#
0"
0!
02
0/
00
0.
1&
01
#660000
1!
1.
0&
#680000
1"
0!
10
0.
1&
#700000
1!
1.
0&
#720000
1#
0"
0!
1/
00
0.
1&
#740000
1!
1.
0&
#760000
1"
0!
10
0.
1&
11
#780000
1!
1.
0&
13
1-
1%
#800000
1$
0#
0"
0!
12
0/
00
0.
1&
03
01
0-
0%
#820000
1!
1.
0&
#840000
1"
0!
10
0.
1&
#860000
1!
1.
0&
#880000
1#
0"
0!
1/
00
0.
1&
#900000
1!
1.
0&
#920000
1"
0!
10
0.
1&
11
#940000
1!
1.
0&
#960000
0$
0#
0"
0!
02
0/
00
0.
1&
01
#980000
1!
1.
0&
