simulation/qsim/Pratica05_reg_5_bits.msim.vcd
$comment
	File created using the following command:
		vcd file Pratica05_reg_5_bits.msim.vcd -direction
$end
$date
	Sat Nov 25 16:01:22 2023
$end
$version
	ModelSim Version 10.1d
$end
$timescale
	1ps
$end
$scope module Pratica05_reg_5_bits_vlg_vec_tst $end
$var reg 1 ! ck $end
$var reg 5 " d [4:0] $end
$var reg 1 # en $end
$var reg 1 $ rst $end
$var wire 1 % q [4] $end
$var wire 1 & q [3] $end
$var wire 1 ' q [2] $end
$var wire 1 ( q [1] $end
$var wire 1 ) q [0] $end
$var wire 1 * sampler $end
$scope module i1 $end
$var wire 1 + gnd $end
$var wire 1 , vcc $end
$var wire 1 - unknown $end
$var tri1 1 . devclrn $end
$var tri1 1 / devpor $end
$var tri1 1 0 devoe $end
$var wire 1 1 q[4]~output_o $end
$var wire 1 2 q[3]~output_o $end
$var wire 1 3 q[2]~output_o $end
$var wire 1 4 q[1]~output_o $end
$var wire 1 5 q[0]~output_o $end
$var wire 1 6 ck~input_o $end
$var wire 1 7 ck~inputclkctrl_outclk $end
$var wire 1 8 d[4]~input_o $end
$var wire 1 9 inst5|inst2|inst~feeder_combout $end
$var wire 1 : rst~input_o $end
$var wire 1 ; rst~inputclkctrl_outclk $end
$var wire 1 < en~input_o $end
$var wire 1 = inst5|inst2|inst~q $end
$var wire 1 > d[3]~input_o $end
$var wire 1 ? inst4|inst2|inst~feeder_combout $end
$var wire 1 @ inst4|inst2|inst~q $end
$var wire 1 A d[2]~input_o $end
$var wire 1 B inst3|inst2|inst~feeder_combout $end
$var wire 1 C inst3|inst2|inst~q $end
$var wire 1 D d[1]~input_o $end
$var wire 1 E inst2|inst2|inst~q $end
$var wire 1 F d[0]~input_o $end
$var wire 1 G inst|inst2|inst~feeder_combout $end
$var wire 1 H inst|inst2|inst~q $end
$upscope $end
$upscope $end
$enddefinitions $end
#0
$dumpvars
0!
b0 "
1#
0$
0)
0(
0'
0&
0%
x*
0+
1,
x-
1.
1/
10
01
02
03
04
05
06
07
08
09
0:
0;
1<
0=
0>
0?
0@
0A
0B
0C
0D
0E
0F
0G
0H
$end
#10000
b10000 "
1!
18
16
17
0*
19
#20000
b11000 "
b1000 "
0!
1>
08
06
07
1*
1?
09
#30000
b11000 "
1!
18
16
17
0*
19
1@
12
1&
#40000
b11100 "
b10100 "
b100 "
0!
1A
0>
08
06
07
1*
1B
0?
09
#50000
b10100 "
1!
18
16
17
0*
19
1C
0@
13
02
1'
0&
#60000
b11100 "
b1100 "
0!
1>
08
06
07
1*
1?
09
#70000
b11100 "
1!
18
16
17
0*
19
1@
12
1&
#80000
b11110 "
b11010 "
b10010 "
b10 "
0!
1D
0A
0>
08
06
07
1*
0B
0?
09
#90000
b10010 "
1!
18
16
17
0*
19
1E
0C
0@
14
03
02
1(
0'
0&
#100000
b11010 "
b1010 "
0!
1>
08
06
07
1*
1?
09
#110000
b11010 "
1!
18
16
17
0*
19
1@
12
1&
#120000
b11110 "
b10110 "
b110 "
0!
1A
0>
08
06
07
1*
1B
0?
09
#130000
b10110 "
1!
18
16
17
0*
19
1C
0@
13
02
1'
0&
#140000
b11110 "
b1110 "
0!
1>
08
06
07
1*
1?
09
#150000
b11110 "
1!
18
16
17
0*
19
1@
12
1&
#160000
b11111 "
b11101 "
b11001 "
b10001 "
b1 "
0!
1F
0D
0A
0>
08
06
07
1*
1G
0B
0?
09
#170000
b10001 "
1!
18
16
17
0*
19
1H
0E
0C
0@
15
04
03
02
1)
0(
0'
0&
#180000
b11001 "
b1001 "
0!
1>
08
06
07
1*
1?
09
#190000
b11001 "
1!
18
16
17
0*
19
1@
12
1&
#200000
b11101 "
b10101 "
b101 "
0!
1A
0>
08
06
07
1*
1B
0?
09
#210000
b10101 "
1!
18
16
17
0*
19
1C
0@
13
02
1'
0&
#220000
b11101 "
b1101 "
0!
1>
08
06
07
1*
1?
09
#230000
b11101 "
1!
18
16
17
0*
19
1@
12
1&
#240000
b11111 "
b11011 "
b10011 "
b11 "
0!
1D
0A
0>
08
06
07
1*
0B
0?
09
#250000
b10011 "
1!
18
16
17
0*
19
1E
0C
0@
14
03
02
1(
0'
0&
#260000
b11011 "
b1011 "
0!
1>
08
06
07
1*
1?
09
#270000
b11011 "
1!
18
16
17
0*
19
1@
12
1&
#280000
b11111 "
b10111 "
b111 "
0!
1A
0>
08
06
07
1*
1B
0?
09
#290000
b10111 "
1!
18
16
17
0*
19
1C
0@
13
02
1'
0&
#300000
b11111 "
b1111 "
0!
1>
08
06
07
1*
1?
09
#310000
b11111 "
1!
18
16
17
0*
19
1@
12
1&
#320000
b11110 "
b11100 "
b11000 "
b10000 "
b0 "
0!
0F
0D
0A
0>
08
06
07
1*
0G
0B
0?
09
#330000
b10000 "
1!
18
16
17
0*
19
0H
0E
0C
0@
05
04
03
02
0)
0(
0'
0&
#340000
b11000 "
b1000 "
0!
1>
08
06
07
1*
1?
09
#350000
b11000 "
1!
18
16
17
0*
19
1@
12
1&
#360000
b11100 "
b10100 "
b100 "
0!
1A
0>
08
06
07
1*
1B
0?
09
#370000
b10100 "
1!
18
16
17
0*
19
1C
0@
13
02
1'
0&
#380000
b11100 "
b1100 "
0!
1>
08
06
07
1*
1?
09
#390000
b11100 "
1!
18
16
17
0*
19
1@
12
1&
#400000
b11110 "
b11010 "
b10010 "
b10 "
0!
1D
0A
0>
08
06
07
1*
0B
0?
09
#410000
b10010 "
1!
18
16
17
0*
19
1E
0C
0@
14
03
02
1(
0'
0&
#420000
b11010 "
b1010 "
0!
1>
08
06
07
1*
1?
09
#430000
b11010 "
1!
18
16
17
0*
19
1@
12
1&
#440000
b11110 "
b10110 "
b110 "
0!
1A
0>
08
06
07
1*
1B
0?
09
#450000
b10110 "
1!
18
16
17
0*
19
1C
0@
13
02
1'
0&
#460000
b11110 "
b1110 "
0!
1>
08
06
07
1*
1?
09
#470000
b11110 "
1!
18
16
17
0*
19
1@
12
1&
#480000
0#
b11111 "
b11101 "
b11001 "
b10001 "
b1 "
0!
0<
1F
0D
0A
0>
08
06
07
1*
1G
0B
0?
09
#490000
b10001 "
1!
18
16
17
0*
19
#500000
b11001 "
b1001 "
0!
1>
08
06
07
1*
1?
09
#510000
b11001 "
1!
18
16
17
0*
19
#520000
b11101 "
b10101 "
b101 "
0!
1A
0>
08
06
07
1*
1B
0?
09
#530000
b10101 "
1!
18
16
17
0*
19
#540000
b11101 "
b1101 "
0!
1>
08
06
07
1*
1?
09
#550000
b11101 "
1!
18
16
17
0*
19
#560000
b11111 "
b11011 "
b10011 "
b11 "
0!
1D
0A
0>
08
06
07
1*
0B
0?
09
#570000
b10011 "
1!
18
16
17
0*
19
#580000
b11011 "
b1011 "
0!
1>
08
06
07
1*
1?
09
#590000
b11011 "
1!
18
16
17
0*
19
#600000
b11111 "
b10111 "
b111 "
0!
1A
0>
08
06
07
1*
1B
0?
09
#610000
b10111 "
1!
18
16
17
0*
19
#620000
b11111 "
b1111 "
0!
1>
08
06
07
1*
1?
09
#630000
b11111 "
1!
18
16
17
0*
19
#640000
b11110 "
b11100 "
b11000 "
b10000 "
b0 "
0!
0F
0D
0A
0>
08
06
07
1*
0G
0B
0?
09
#650000
b10000 "
1!
18
16
17
0*
19
#660000
b11000 "
b1000 "
0!
1>
08
06
07
1*
1?
09
#670000
b11000 "
1!
18
16
17
0*
19
#680000
b11100 "
b10100 "
b100 "
0!
1A
0>
08
06
07
1*
1B
0?
09
#690000
b10100 "
1!
18
16
17
0*
19
#700000
b11100 "
b1100 "
0!
1>
08
06
07
1*
1?
09
#710000
b11100 "
1!
18
16
17
0*
19
#720000
1$
b11110 "
b11010 "
b10010 "
b10 "
0!
1:
1D
0A
0>
08
06
1;
07
1*
0B
0?
09
0@
0C
0E
02
03
04
0&
0'
0(
#730000
b10010 "
1!
18
16
17
0*
19
#740000
b11010 "
b1010 "
0!
1>
08
06
07
1*
1?
09
#750000
b11010 "
1!
18
16
17
0*
19
#760000
1#
b11110 "
b10110 "
b110 "
0!
1<
1A
0>
08
06
07
1*
1B
0?
09
#770000
b10110 "
1!
18
16
17
0*
19
#780000
b11110 "
b1110 "
0!
1>
08
06
07
1*
1?
09
#790000
b11110 "
1!
18
16
17
0*
19
#800000
b11111 "
0$
b11101 "
0#
b11001 "
b10001 "
b1 "
0!
1F
0D
0A
0>
08
0:
0<
06
0;
07
1*
1G
0B
0?
09
#810000
b10001 "
1!
18
16
17
0*
19
#820000
b11001 "
b1001 "
0!
1>
08
06
07
1*
1?
09
#830000
b11001 "
1!
18
16
17
0*
19
#840000
1#
b11101 "
b10101 "
b101 "
0!
1<
1A
0>
08
06
07
1*
1B
0?
09
#850000
b10101 "
1!
18
16
17
0*
19
1H
1C
15
13
1)
1'
#860000
b11101 "
b1101 "
0!
1>
08
06
07
1*
1?
09
#870000
b11101 "
1!
18
16
17
0*
19
1@
12
1&
#880000
1$
b11111 "
0#
b11011 "
b10011 "
b11 "
0!
1:
1D
0A
0>
08
0<
06
1;
07
1*
0B
0?
09
0@
0C
0H
02
03
05
0&
0'
0)
#890000
b10011 "
1!
18
16
17
0*
19
#900000
b11011 "
b1011 "
0!
1>
08
06
07
1*
1?
09
#910000
b11011 "
1!
18
16
17
0*
19
#920000
1#
b11111 "
b10111 "
b111 "
0!
1<
1A
0>
08
06
07
1*
1B
0?
09
#930000
b10111 "
1!
18
16
17
0*
19
#940000
b11111 "
b1111 "
0!
1>
08
06
07
1*
1?
09
#950000
b11111 "
1!
18
16
17
0*
19
#960000
b11110 "
0$
b11100 "
0#
b11000 "
b10000 "
b0 "
0!
0F
0D
0A
0>
08
0:
0<
06
0;
07
1*
0G
0B
0?
09
#970000
b10000 "
1!
18
16
17
0*
19
#980000
b11000 "
b1000 "
0!
1>
08
06
07
1*
1?
09
#990000
b11000 "
1!
18
16
17
0*
19
