simulation/qsim/Pratica06_cont_gen_4_bits.msim.vcd
$comment
	File created using the following command:
		vcd file Pratica06_cont_gen_4_bits.msim.vcd -direction
$end
$date
	Mon Nov 27 20:50:10 2023
$end
$version
	ModelSim Version 10.1d
$end
$timescale
	1ps
$end
$scope module Pratica06_cont_gen_4_bits_vlg_vec_tst $end
$var reg 1 ! c0 $end
$var reg 1 " c1 $end
$var reg 1 # ck $end
$var reg 4 $ d [0:3] $end
$var reg 1 % r $end
$var wire 1 & q [0] $end
$var wire 1 ' q [1] $end
$var wire 1 ( q [2] $end
$var wire 1 ) q [3] $end
$var wire 1 * sampler $end
$scope module i1 $end
$var wire 1 + gnd $end
$var wire 1 , vcc $end
$var wire 1 - unknown $end
$var tri1 1 . devclrn $end
$var tri1 1 / devpor $end
$var tri1 1 0 devoe $end
$var wire 1 1 q[0]~output_o $end
$var wire 1 2 q[1]~output_o $end
$var wire 1 3 q[2]~output_o $end
$var wire 1 4 q[3]~output_o $end
$var wire 1 5 ck~input_o $end
$var wire 1 6 ck~inputclkctrl_outclk $end
$var wire 1 7 d[0]~input_o $end
$var wire 1 8 inst|inst6~feeder_combout $end
$var wire 1 9 r~input_o $end
$var wire 1 : r~inputclkctrl_outclk $end
$var wire 1 ; c1~input_o $end
$var wire 1 < c0~input_o $end
$var wire 1 = inst|inst1|inst12~0_combout $end
$var wire 1 > inst|inst6~q $end
$var wire 1 ? d[1]~input_o $end
$var wire 1 @ inst2|inst6~feeder_combout $end
$var wire 1 A inst2|inst6~q $end
$var wire 1 B d[2]~input_o $end
$var wire 1 C inst3|inst6~feeder_combout $end
$var wire 1 D inst3|inst6~q $end
$var wire 1 E d[3]~input_o $end
$var wire 1 F inst6|inst1|inst12~0_combout $end
$var wire 1 G inst6|inst6~q $end
$upscope $end
$upscope $end
$enddefinitions $end
#0
$dumpvars
0!
0"
0#
b0 $
0%
0)
0(
0'
0&
x*
0+
1,
x-
1.
1/
10
01
02
03
04
05
06
07
08
09
0:
0;
0<
0=
0>
0?
0@
0A
0B
0C
0D
0E
0F
0G
$end
#20000
1#
15
16
0*
#40000
1"
b1000 $
0#
1;
17
05
06
1*
18
#60000
1#
15
16
0*
#80000
1!
b1100 $
0"
b100 $
0#
1<
1?
07
0;
05
06
1*
1@
08
#100000
1#
15
16
0*
#120000
1"
b1100 $
0#
1;
17
05
06
1*
1=
18
#140000
1#
15
16
0*
1A
1>
12
11
1'
1&
#160000
b1110 $
0!
b1010 $
0"
b10 $
0#
1B
0?
07
0<
0;
05
06
1*
1C
0@
08
0=
#180000
1#
15
16
0*
#200000
1"
b1010 $
0#
1;
17
05
06
1*
18
#220000
1#
15
16
0*
#240000
1!
b1110 $
0"
b110 $
0#
1<
1?
07
0;
05
06
1*
1@
08
#260000
1#
15
16
0*
#280000
1"
b1110 $
0#
1;
17
05
06
1*
1=
18
#300000
1#
15
16
0*
1D
13
1(
#320000
b1111 $
b1101 $
0!
b1001 $
0"
b1 $
0#
1E
0B
0?
07
0<
0;
05
06
1*
0C
0@
08
0=
#340000
1#
15
16
0*
#360000
1"
b1001 $
0#
1;
17
05
06
1*
18
#380000
1#
15
16
0*
#400000
1!
b1101 $
0"
b101 $
0#
1<
1?
07
0;
05
06
1*
1@
08
#420000
1#
15
16
0*
#440000
1"
b1101 $
0#
1;
17
05
06
1*
1F
1=
18
#460000
1#
15
16
0*
1G
0D
14
03
1)
0(
#480000
b1111 $
0!
b1011 $
0"
b11 $
0#
1B
0?
07
0<
0;
05
06
1*
1C
0@
08
0=
#500000
1#
15
16
0*
#520000
1"
b1011 $
0#
1;
17
05
06
1*
18
#540000
1#
15
16
0*
#560000
1!
b1111 $
0"
b111 $
0#
1<
1?
07
0;
05
06
1*
1@
08
#580000
1#
15
16
0*
#600000
1"
b1111 $
0#
1;
17
05
06
1*
1=
18
#620000
1#
15
16
0*
1D
13
1(
#640000
b1110 $
b1100 $
0!
b1000 $
0"
b0 $
0#
0E
0B
0?
07
0<
0;
05
06
1*
0C
0@
08
0=
#660000
1#
15
16
0*
#680000
1"
b1000 $
0#
1;
17
05
06
1*
18
#700000
1#
15
16
0*
#720000
1!
b1100 $
0"
b100 $
0#
1<
1?
07
0;
05
06
1*
1@
08
#740000
1#
15
16
0*
#760000
1"
b1100 $
0#
1;
17
05
06
1*
0F
1=
18
#780000
1%
1#
19
15
1:
16
0*
0G
0D
0>
0A
04
03
01
02
0)
0(
0&
0'
#800000
b1110 $
0!
b1010 $
0"
b10 $
0#
1B
0?
07
0<
0;
05
06
1*
1C
0@
08
0=
#820000
1#
15
16
0*
#840000
1"
b1010 $
0#
1;
17
05
06
1*
18
#860000
1#
15
16
0*
#880000
1!
b1110 $
0"
b110 $
0#
1<
1?
07
0;
05
06
1*
1@
08
#900000
1#
15
16
0*
#920000
1"
b1110 $
0#
1;
17
05
06
1*
1=
18
#940000
1#
15
16
0*
#960000
b1111 $
b1101 $
0!
b1001 $
0"
b1 $
0#
1E
0B
0?
07
0<
0;
05
06
1*
0C
0@
08
0=
#980000
1#
15
16
0*
