simulation/qsim/Pratica04_xor2_4bits.msim.vcd
$comment
	File created using the following command:
		vcd file Pratica04_xor2_4bits.msim.vcd -direction
$end
$date
	Sun Nov 05 13:09:57 2023
$end
$version
	ModelSim Version 10.1d
$end
$timescale
	1ps
$end
$scope module Pratica04_xor2_4bits_vlg_vec_tst $end
$var reg 4 ! a [3:0] $end
$var reg 1 " c0 $end
$var wire 1 # s [3] $end
$var wire 1 $ s [2] $end
$var wire 1 % s [1] $end
$var wire 1 & s [0] $end
$var wire 1 ' sampler $end
$scope module i1 $end
$var wire 1 ( gnd $end
$var wire 1 ) vcc $end
$var wire 1 * unknown $end
$var tri1 1 + devclrn $end
$var tri1 1 , devpor $end
$var tri1 1 - devoe $end
$var wire 1 . s[3]~output_o $end
$var wire 1 / s[2]~output_o $end
$var wire 1 0 s[1]~output_o $end
$var wire 1 1 s[0]~output_o $end
$var wire 1 2 a[3]~input_o $end
$var wire 1 3 c0~input_o $end
$var wire 1 4 inst3~combout $end
$var wire 1 5 a[2]~input_o $end
$var wire 1 6 inst2~combout $end
$var wire 1 7 a[1]~input_o $end
$var wire 1 8 inst1~combout $end
$var wire 1 9 a[0]~input_o $end
$var wire 1 : inst~combout $end
$upscope $end
$upscope $end
$enddefinitions $end
#0
$dumpvars
b0 !
0"
0&
0%
0$
0#
x'
0(
1)
x*
1+
1,
1-
0.
0/
00
01
02
03
04
05
06
07
08
09
0:
$end
#10000
b1000 !
12
0'
14
1.
1#
#20000
b1100 !
b100 !
15
02
1'
16
04
1/
0.
1$
0#
#30000
b1100 !
12
0'
14
1.
1#
#40000
b1110 !
b1010 !
b10 !
17
05
02
1'
18
06
04
10
0/
0.
1%
0$
0#
#50000
b1010 !
12
0'
14
1.
1#
#60000
b1110 !
b110 !
15
02
1'
16
04
1/
0.
1$
0#
#70000
b1110 !
12
0'
14
1.
1#
#80000
b1111 !
b1101 !
b1001 !
b1 !
19
07
05
02
1'
1:
08
06
04
11
00
0/
0.
1&
0%
0$
0#
#90000
b1001 !
12
0'
14
1.
1#
#100000
b1101 !
b101 !
15
02
1'
16
04
1/
0.
1$
0#
#110000
b1101 !
12
0'
14
1.
1#
#120000
b1111 !
b1011 !
b11 !
17
05
02
1'
18
06
04
10
0/
0.
1%
0$
0#
#130000
b1011 !
12
0'
14
1.
1#
#140000
b1111 !
b111 !
15
02
1'
16
04
1/
0.
1$
0#
#150000
b1111 !
12
0'
14
1.
1#
#160000
1"
b1110 !
b1100 !
b1000 !
b0 !
13
09
07
05
02
1'
#170000
b1000 !
12
0'
04
0.
0#
#180000
b1100 !
b100 !
15
02
1'
06
14
0/
1.
0$
1#
#190000
b1100 !
12
0'
04
0.
0#
#200000
b1110 !
b1010 !
b10 !
17
05
02
1'
08
16
14
00
1/
1.
0%
1$
1#
#210000
b1010 !
12
0'
04
0.
0#
#220000
b1110 !
b110 !
15
02
1'
06
14
0/
1.
0$
1#
#230000
b1110 !
12
0'
04
0.
0#
#240000
b1111 !
b1101 !
b1001 !
b1 !
19
07
05
02
1'
0:
18
16
14
01
10
1/
1.
0&
1%
1$
1#
#250000
b1001 !
12
0'
04
0.
0#
#260000
b1101 !
b101 !
15
02
1'
06
14
0/
1.
0$
1#
#270000
b1101 !
12
0'
04
0.
0#
#280000
b1111 !
b1011 !
b11 !
17
05
02
1'
08
16
14
00
1/
1.
0%
1$
1#
#290000
b1011 !
12
0'
04
0.
0#
#300000
b1111 !
b111 !
15
02
1'
06
14
0/
1.
0$
1#
#310000
b1111 !
12
0'
04
0.
0#
#320000
0"
b1110 !
b1100 !
b1000 !
b0 !
03
09
07
05
02
1'
