ProjetoFinal/simulation/qsim/ProjetoFinalCD.msim.vcd
$comment
	File created using the following command:
		vcd file ProjetoFinalCD.msim.vcd -direction
$end
$date
	Tue Jan 30 22:44:54 2024
$end
$version
	ModelSim Version 10.1d
$end
$timescale
	1ps
$end
$scope module ProjetoFinalCD_vlg_vec_tst $end
$var reg 1 ! ck $end
$var reg 1 " ck_man $end
$var reg 4 # d [3:0] $end
$var reg 1 $ rst $end
$var reg 1 % sel_mux $end
$var reg 1 & v0 $end
$var reg 1 ' v1 $end
$var reg 1 ( v2 $end
$var reg 2 ) w [1:0] $end
$var wire 1 * B $end
$var wire 1 + C $end
$var wire 1 , cki $end
$var wire 1 - ha [6] $end
$var wire 1 . ha [5] $end
$var wire 1 / ha [4] $end
$var wire 1 0 ha [3] $end
$var wire 1 1 ha [2] $end
$var wire 1 2 ha [1] $end
$var wire 1 3 ha [0] $end
$var wire 1 4 hb [6] $end
$var wire 1 5 hb [5] $end
$var wire 1 6 hb [4] $end
$var wire 1 7 hb [3] $end
$var wire 1 8 hb [2] $end
$var wire 1 9 hb [1] $end
$var wire 1 : hb [0] $end
$var wire 1 ; N $end
$var wire 1 < q [3] $end
$var wire 1 = q [2] $end
$var wire 1 > q [1] $end
$var wire 1 ? q [0] $end
$var wire 1 @ s [3] $end
$var wire 1 A s [2] $end
$var wire 1 B s [1] $end
$var wire 1 C s [0] $end
$var wire 1 D v $end
$var wire 1 E Z $end
$var wire 1 F sampler $end
$scope module i1 $end
$var wire 1 G gnd $end
$var wire 1 H vcc $end
$var wire 1 I unknown $end
$var tri1 1 J devclrn $end
$var tri1 1 K devpor $end
$var tri1 1 L devoe $end
$var wire 1 M cki~output_o $end
$var wire 1 N C~output_o $end
$var wire 1 O q[3]~output_o $end
$var wire 1 P q[2]~output_o $end
$var wire 1 Q q[1]~output_o $end
$var wire 1 R q[0]~output_o $end
$var wire 1 S N~output_o $end
$var wire 1 T Z~output_o $end
$var wire 1 U v~output_o $end
$var wire 1 V B~output_o $end
$var wire 1 W ha[6]~output_o $end
$var wire 1 X ha[5]~output_o $end
$var wire 1 Y ha[4]~output_o $end
$var wire 1 Z ha[3]~output_o $end
$var wire 1 [ ha[2]~output_o $end
$var wire 1 \ ha[1]~output_o $end
$var wire 1 ] ha[0]~output_o $end
$var wire 1 ^ hb[6]~output_o $end
$var wire 1 _ hb[5]~output_o $end
$var wire 1 ` hb[4]~output_o $end
$var wire 1 a hb[3]~output_o $end
$var wire 1 b hb[2]~output_o $end
$var wire 1 c hb[1]~output_o $end
$var wire 1 d hb[0]~output_o $end
$var wire 1 e s[3]~output_o $end
$var wire 1 f s[2]~output_o $end
$var wire 1 g s[1]~output_o $end
$var wire 1 h s[0]~output_o $end
$var wire 1 i sel_mux~input_o $end
$var wire 1 j ck_man~input_o $end
$var wire 1 k ck~input_o $end
$var wire 1 l inst|inst|inst2~0_combout $end
$var wire 1 m inst|inst|inst2~feeder_combout $end
$var wire 1 n rst~input_o $end
$var wire 1 o inst|inst|inst2~q $end
$var wire 1 p inst|inst1|inst2~0_combout $end
$var wire 1 q inst|inst1|inst2~feeder_combout $end
$var wire 1 r inst|inst1|inst2~q $end
$var wire 1 s inst|inst2|inst2~0_combout $end
$var wire 1 t inst|inst2|inst2~q $end
$var wire 1 u inst|inst3|inst2~0_combout $end
$var wire 1 v inst|inst3|inst2~feeder_combout $end
$var wire 1 w inst|inst3|inst2~q $end
$var wire 1 x inst|inst5|inst2~0_combout $end
$var wire 1 y inst|inst5|inst2~feeder_combout $end
$var wire 1 z inst|inst5|inst2~q $end
$var wire 1 { inst|inst6|inst2~0_combout $end
$var wire 1 | inst|inst6|inst2~q $end
$var wire 1 } inst|inst7|inst2~0_combout $end
$var wire 1 ~ inst|inst7|inst2~q $end
$var wire 1 !! inst|inst8|inst2~0_combout $end
$var wire 1 "! inst|inst8|inst2~q $end
$var wire 1 #! inst|inst9|inst2~0_combout $end
$var wire 1 $! inst|inst9|inst2~feeder_combout $end
$var wire 1 %! inst|inst9|inst2~q $end
$var wire 1 &! inst|inst10|inst2~0_combout $end
$var wire 1 '! inst|inst10|inst2~feeder_combout $end
$var wire 1 (! inst|inst10|inst2~q $end
$var wire 1 )! inst|inst12|inst2~0_combout $end
$var wire 1 *! inst|inst12|inst2~q $end
$var wire 1 +! inst|inst11|inst2~0_combout $end
$var wire 1 ,! inst|inst11|inst2~feeder_combout $end
$var wire 1 -! inst|inst11|inst2~q $end
$var wire 1 .! inst|inst13|inst2~0_combout $end
$var wire 1 /! inst|inst13|inst2~q $end
$var wire 1 0! inst|inst14|inst2~0_combout $end
$var wire 1 1! inst|inst14|inst2~q $end
$var wire 1 2! inst|inst15|inst2~0_combout $end
$var wire 1 3! inst|inst15|inst2~feeder_combout $end
$var wire 1 4! inst|inst15|inst2~q $end
$var wire 1 5! inst|inst16|inst2~0_combout $end
$var wire 1 6! inst|inst16|inst2~q $end
$var wire 1 7! inst|inst17|inst2~0_combout $end
$var wire 1 8! inst|inst17|inst2~feeder_combout $end
$var wire 1 9! inst|inst17|inst2~q $end
$var wire 1 :! inst|inst18|inst2~0_combout $end
$var wire 1 ;! inst|inst18|inst2~q $end
$var wire 1 <! inst|inst19|inst2~0_combout $end
$var wire 1 =! inst|inst19|inst2~feeder_combout $end
$var wire 1 >! inst|inst19|inst2~q $end
$var wire 1 ?! inst|inst20|inst2~0_combout $end
$var wire 1 @! inst|inst20|inst2~q $end
$var wire 1 A! inst|inst21|inst2~0_combout $end
$var wire 1 B! inst|inst21|inst2~feeder_combout $end
$var wire 1 C! inst|inst21|inst2~q $end
$var wire 1 D! inst|inst22|inst2~0_combout $end
$var wire 1 E! inst|inst22|inst2~feeder_combout $end
$var wire 1 F! inst|inst22|inst2~q $end
$var wire 1 G! inst|inst23|inst2~0_combout $end
$var wire 1 H! inst|inst23|inst2~q $end
$var wire 1 I! inst|inst24|inst2~0_combout $end
$var wire 1 J! inst|inst24|inst2~q $end
$var wire 1 K! inst2|inst4~combout $end
$var wire 1 L! inst2|inst4~clkctrl_outclk $end
$var wire 1 M! d[1]~input_o $end
$var wire 1 N! w[0]~input_o $end
$var wire 1 O! w[1]~input_o $end
$var wire 1 P! d[0]~input_o $end
$var wire 1 Q! inst9|inst1|inst9|inst12~0_combout $end
$var wire 1 R! inst9|inst1|inst6~q $end
$var wire 1 S! inst9|inst2|inst9|inst12~0_combout $end
$var wire 1 T! inst9|inst2|inst9|inst12~1_combout $end
$var wire 1 U! inst9|inst2|inst6~q $end
$var wire 1 V! d[3]~input_o $end
$var wire 1 W! inst9|inst6|inst9|inst12~1_combout $end
$var wire 1 X! inst9|inst3|inst9|inst12~1_combout $end
$var wire 1 Y! d[2]~input_o $end
$var wire 1 Z! inst9|inst3|inst9|inst12~0_combout $end
$var wire 1 [! inst9|inst3|inst9|inst12~2_combout $end
$var wire 1 \! inst9|inst3|inst6~q $end
$var wire 1 ]! inst9|inst6|inst9|inst12~0_combout $end
$var wire 1 ^! inst9|inst6|inst9|inst12~2_combout $end
$var wire 1 _! inst9|inst6|inst6~q $end
$var wire 1 `! v0~input_o $end
$var wire 1 a! v1~input_o $end
$var wire 1 b! inst7|inst5|inst12|inst7|1~0_combout $end
$var wire 1 c! inst7|inst3|inst12|inst7|1~0_combout $end
$var wire 1 d! inst7|inst2|inst6~combout $end
$var wire 1 e! inst7|inst2|inst5~combout $end
$var wire 1 f! inst7|inst|inst4~1_combout $end
$var wire 1 g! v2~input_o $end
$var wire 1 h! inst7|inst|inst4~0_combout $end
$var wire 1 i! inst7|inst2|inst4~0_combout $end
$var wire 1 j! inst7|inst3|inst12|inst7|1~1_combout $end
$var wire 1 k! inst7|inst3|inst4~combout $end
$var wire 1 l! inst7|inst5|inst12|inst7|1~1_combout $end
$var wire 1 m! inst7|inst5|inst4~combout $end
$var wire 1 n! inst7|inst5|inst13|inst~1_combout $end
$var wire 1 o! inst7|inst5|inst13|inst~0_combout $end
$var wire 1 p! inst7|inst5|inst13|inst~2_combout $end
$var wire 1 q! inst7|inst5|inst13|inst~3_combout $end
$var wire 1 r! inst7|inst5|inst13|inst~4_combout $end
$var wire 1 s! inst7|inst3|inst13|inst~2_combout $end
$var wire 1 t! inst7|inst3|inst13|inst~0_combout $end
$var wire 1 u! inst7|inst3|inst13|inst~1_combout $end
$var wire 1 v! inst7|inst3|inst13|inst~3_combout $end
$var wire 1 w! inst7|inst2|inst13|inst~2_combout $end
$var wire 1 x! inst7|inst2|inst13|inst~0_combout $end
$var wire 1 y! inst7|inst2|inst13|inst~1_combout $end
$var wire 1 z! inst7|inst2|inst13|inst~3_combout $end
$var wire 1 {! inst7|inst|inst13|inst~0_combout $end
$var wire 1 |! inst7|inst|inst13|inst~1_combout $end
$var wire 1 }! inst7|inst|inst13|inst~2_combout $end
$var wire 1 ~! inst7|inst4~combout $end
$var wire 1 !" inst7|inst9~0_combout $end
$var wire 1 "" inst7|inst9~1_combout $end
$var wire 1 #" inst7|inst18~combout $end
$var wire 1 $" inst4|inst59~0_combout $end
$var wire 1 %" inst4|inst52~2_combout $end
$var wire 1 &" inst4|inst39~0_combout $end
$var wire 1 '" inst4|inst36~2_combout $end
$var wire 1 (" inst4|inst30~2_combout $end
$var wire 1 )" inst4|inst23~2_combout $end
$var wire 1 *" inst4|inst21~2_combout $end
$var wire 1 +" inst6|inst59~0_combout $end
$var wire 1 ," inst6|inst52~0_combout $end
$var wire 1 -" inst6|inst34~0_combout $end
$var wire 1 ." inst6|inst52~1_combout $end
$var wire 1 /" inst6|inst39~0_combout $end
$var wire 1 0" inst6|inst36~0_combout $end
$var wire 1 1" inst6|inst36~1_combout $end
$var wire 1 2" inst6|inst34~1_combout $end
$var wire 1 3" inst6|inst30~3_combout $end
$var wire 1 4" inst6|inst30~2_combout $end
$var wire 1 5" inst6|inst23~0_combout $end
$var wire 1 6" inst6|inst23~1_combout $end
$var wire 1 7" inst6|inst21~0_combout $end
$var wire 1 8" inst6|inst21~1_combout $end
$upscope $end
$upscope $end
$enddefinitions $end
#0
$dumpvars
0!
0"
b11 #
1$
1%
0&
0'
0(
b11 )
0*
0+
1,
03
02
01
00
0/
0.
1-
0:
09
08
07
06
05
14
0;
0?
0>
0=
0<
0C
0B
0A
0@
0D
1E
xF
0G
1H
xI
1J
1K
1L
1M
0N
0O
0P
0Q
0R
0S
1T
0U
0V
1W
0X
0Y
0Z
0[
0\
0]
1^
0_
0`
0a
0b
0c
0d
0e
0f
0g
0h
1i
0j
0k
1l
1m
1n
0o
1p
1q
0r
1s
0t
1u
1v
0w
1x
1y
0z
1{
0|
1}
0~
1!!
0"!
1#!
1$!
0%!
1&!
1'!
0(!
1)!
0*!
1+!
1,!
0-!
1.!
0/!
10!
01!
12!
13!
04!
15!
06!
17!
18!
09!
1:!
0;!
1<!
1=!
0>!
1?!
0@!
1A!
1B!
0C!
1D!
1E!
0F!
1G!
0H!
1I!
0J!
0K!
0L!
1M!
1N!
1O!
1P!
1Q!
0R!
1S!
1T!
0U!
0V!
1W!
0X!
0Y!
0Z!
0[!
0\!
1]!
0^!
0_!
0`!
0a!
1b!
1c!
1d!
0e!
1f!
0g!
0h!
0i!
0j!
0k!
0l!
0m!
0n!
0o!
0p!
1q!
0r!
1s!
0t!
0u!
0v!
0w!
0x!
0y!
0z!
0{!
0|!
0}!
0~!
0!"
0""
0#"
0$"
1%"
1&"
1'"
1("
1)"
1*"
0+"
0,"
1-"
1."
1/"
00"
11"
02"
03"
14"
05"
16"
07"
18"
$end
#40000
1"
1j
0F
1K!
1L!
0M
0,
1U!
1R!
0&"
0%"
1$"
1w!
1e!
1X!
1|!
1{!
0f!
1Q
1R
1>
1?
1Y
1X
0W
1/
1.
0-
1z!
1}!
17"
0/"
0-"
1+"
1~!
1g
1h
1B
1C
0."
1`
0^
0T
16
04
0E
1_
15
#80000
0"
0j
1F
0K!
0L!
1M
1,
#120000
1"
1j
0F
1K!
1L!
0M
0,
#160000
b1 )
0"
0O!
0j
1F
1^!
1[!
0W!
0S!
0Q!
0K!
0L!
0^!
0T!
1M
1,
#180000
b1 #
b0 #
0P!
0M!
0F
#200000
1"
1j
1F
1K!
1L!
0M
0,
1\!
0U!
0R!
0*"
0'"
1%"
1t!
0s!
1j!
0w!
0e!
0|!
0{!
1f!
1Q!
1P
0Q
0R
1=
0>
0?
1u!
13"
1]
1Z
0X
13
10
0.
0z!
0}!
04"
07"
03"
01"
1/"
1-"
0+"
0~!
0g
0h
0B
0C
1v!
14"
11"
1."
0/"
0-"
1,"
1+"
1~!
1b
1a
0`
1^
1T
1f
18
17
06
14
1E
1A
08"
01"
0b
0a
0_
1`
0^
0T
08
07
05
16
04
0E
1d
1a
1:
17
#240000
0"
0j
0F
0K!
0L!
1M
1,
#280000
1"
1j
1F
1K!
1L!
0M
0,
1R!
1*"
0)"
1'"
1|!
1{!
0f!
0]!
1S!
0Q!
1R
1?
1T!
0]
1\
0Z
03
12
00
1}!
17"
15"
10"
1h
1C
18"
06"
11"
0d
1c
0a
0:
19
07
#320000
0"
0j
0F
0K!
0L!
1M
1,
#360000
1"
1j
1F
1K!
1L!
0M
0,
1U!
0R!
1&"
1w!
1e!
1^!
0|!
0{!
1f!
1]!
1Q!
1Q
0R
1>
0?
0^!
0Y
0/
1z!
0}!
07"
13"
01"
1/"
00"
1g
0h
1B
0C
11"
1a
0`
17
06
0a
07
#400000
0"
0j
0F
0K!
0L!
1M
1,
#440000
1"
1j
1F
1K!
1L!
0M
0,
1R!
1)"
0'"
0&"
0%"
0$"
1|!
1{!
0f!
0]!
0X!
0S!
0Q!
1R
1?
03"
1^!
0[!
0T!
0\
1Z
1Y
1X
1W
02
10
1/
1.
1-
1}!
05"
10"
0/"
0,"
0+"
1h
1C
16"
01"
0."
1`
1^
16
14
0c
1a
1_
09
17
15
#480000
0"
0j
0F
0K!
0L!
1M
1,
#520000
1"
1j
1F
1K!
1L!
0M
0,
1_!
0\!
0U!
0R!
1'"
1&"
1%"
1$"
0q!
1n!
1l!
1W!
0t!
1s!
0j!
1]!
0w!
0e!
0^!
0|!
0{!
1f!
1Q!
1O
0P
0Q
0R
1<
0=
0>
0?
1p!
1^!
0u!
13"
0Z
0Y
0X
0W
00
0/
0.
0-
0z!
0}!
08"
03"
11"
1,"
1+"
00"
0g
0h
0B
0C
1r!
0v!
1."
18"
1/"
0,"
1d
0a
0^
1e
1S
0f
1:
07
04
1@
1;
0A
0_
0d
0`
05
0:
06
#560000
0"
0j
0F
0K!
0L!
1M
1,
#600000
1"
1j
1F
1K!
1L!
0M
0,
1R!
0&"
1|!
1{!
0f!
1S!
0Q!
1R
1?
1T!
1Y
1/
1}!
10"
0/"
1h
1C
1`
16
#640000
0"
0j
0F
0K!
0L!
1M
1,
#680000
1"
1j
1F
1K!
1L!
0M
0,
1U!
0R!
0'"
1&"
1w!
1e!
0|!
0{!
1f!
1Q!
1Q
0R
1>
0?
1Z
0Y
10
0/
1z!
0}!
13"
1/"
00"
1g
0h
1B
0C
01"
0`
06
1a
17
#720000
0"
0j
0F
0K!
0L!
1M
1,
#760000
1"
1j
1F
1K!
1L!
0M
0,
1R!
0*"
0)"
1'"
1|!
1{!
0f!
1X!
0S!
0Q!
1R
1?
03"
1[!
0T!
1]
1\
0Z
13
12
00
1}!
17"
15"
10"
1h
1C
08"
06"
11"
1d
1c
0a
1:
19
07
#800000
0"
0j
0F
0K!
0L!
1M
1,
#840000
1"
1j
1F
1K!
1L!
0M
0,
1\!
0U!
0R!
1*"
0("
0$"
1t!
0s!
1j!
0w!
0e!
0|!
0{!
1f!
1Q!
1P
0Q
0R
1=
0>
0?
1u!
13"
0]
1[
1W
03
11
1-
0z!
0}!
07"
05"
03"
00"
0g
0h
0B
0C
1v!
18"
04"
10"
1,"
0+"
1f
1A
0d
1b
1^
0:
18
14
#880000
0"
0j
0F
0K!
0L!
1M
1,
#920000
1"
1j
1F
1K!
1L!
0M
0,
1R!
0*"
1)"
1("
0%"
1$"
1|!
1{!
0f!
0]!
1S!
0Q!
1R
1?
1T!
1]
0\
0[
1X
0W
13
02
01
1.
0-
1}!
17"
12"
00"
0."
1+"
1h
1C
08"
16"
14"
1_
0^
15
04
1d
0c
0b
1:
09
08
#960000
0"
0j
0F
0K!
0L!
1M
1,
